[
  {
    "symptom_code": "C0008031",
    "url": "http://purl.obolibrary.org/obo/NCIT_C38665"
  },
  {
    "symptom_code": "C0392680",
    "url": "na"
  },
  {
    "symptom_code": "C0012833",
    "url": "http://purl.obolibrary.org/obo/NCIT_C37943"
  },
  {
    "symptom_code": "C0004093",
    "url": "http://purl.obolibrary.org/obo/NCIT_C28132"
  },
  {
    "symptom_code": "C0085639",
    "url": "http://purl.obolibrary.org/obo/NCIT_C50558"
  },
  {
    "symptom_code": "C0039070",
    "url": "http://purl.obolibrary.org/obo/NCIT_C35053"
  },
  {
    "symptom_code": "C0042571",
    "url": "http://purl.obolibrary.org/obo/NCIT_C38057"
  },
  {
    "symptom_code": "C0038990",
    "url": "http://purl.obolibrary.org/obo/NCIT_C36172"
  },
  {
    "symptom_code": "C0030252",
    "url": "http://purl.obolibrary.org/obo/NCIT_C37999"
  },
  {
    "symptom_code": "C0027497",
    "url": "http://purl.obolibrary.org/obo/NCIT_C3258"
  },
  {
    "symptom_code": "C0002962",
    "url": "http://purl.obolibrary.org/obo/NCIT_C51221"
  },
  {
    "symptom_code": "C0438716",
    "url": "na"
  },
  {
    "symptom_code": "C0032617",
    "url": "http://purl.obolibrary.org/obo/NCIT_C118303"
  },
  {
    "symptom_code": "C0085602",
    "url": "http://purl.obolibrary.org/obo/NCIT_C50700"
  },
  {
    "symptom_code": "C0085619",
    "url": "na"
  },
  {
    "symptom_code": "C0034642",
    "url": "http://purl.obolibrary.org/obo/NCIT_C119216"
  },
  {
    "symptom_code": "C0241526",
    "url": "na"
  },
  {
    "symptom_code": "C0856054",
    "url": "na"
  },
  {
    "symptom_code": "C0042963",
    "url": "http://purl.obolibrary.org/obo/NCIT_C3442"
  },
  {
    "symptom_code": "C0553668",
    "url": "http://purl.obolibrary.org/obo/NCIT_C90501"
  },
  {
    "symptom_code": "C0424000",
    "url": "http://purl.obolibrary.org/obo/NCIT_C80102"
  },
  {
    "symptom_code": "C0438696",
    "url": "na"
  },
  {
    "symptom_code": "C0233762",
    "url": "http://purl.obolibrary.org/obo/NCIT_C118174"
  },
  {
    "symptom_code": "C0150041",
    "url": "na"
  },
  {
    "symptom_code": "C0424109",
    "url": "http://purl.obolibrary.org/obo/NCIT_C117198"
  },
  {
    "symptom_code": "C0917801",
    "url": "http://purl.obolibrary.org/obo/NCIT_C28286"
  },
  {
    "symptom_code": "C0424230",
    "url": "http://purl.obolibrary.org/obo/NCIT_C117194"
  },
  {
    "symptom_code": "C0022107",
    "url": "http://purl.obolibrary.org/obo/NCIT_C77966"
  },
  {
    "symptom_code": "C0312422",
    "url": "na"
  },
  {
    "symptom_code": "C0344315",
    "url": "http://purl.obolibrary.org/obo/NCIT_C117199"
  },
  {
    "symptom_code": "C0233763",
    "url": "http://purl.obolibrary.org/obo/NCIT_C118179"
  },
  {
    "symptom_code": "C0233481",
    "url": "na"
  },
  {
    "symptom_code": "C0085631",
    "url": "http://purl.obolibrary.org/obo/NCIT_C79530"
  },
  {
    "symptom_code": "C0040822",
    "url": "http://purl.obolibrary.org/obo/NCIT_C38038"
  },
  {
    "symptom_code": "C0728899",
    "url": "http://purl.obolibrary.org/obo/NCIT_C28283"
  },
  {
    "symptom_code": "C0424068",
    "url": "na"
  },
  {
    "symptom_code": "C0455769",
    "url": "http://purl.obolibrary.org/obo/NCIT_C117171"
  },
  {
    "symptom_code": "C1299586",
    "url": "na"
  },
  {
    "symptom_code": "C0028084",
    "url": "http://purl.obolibrary.org/obo/NCIT_C117263"
  },
  {
    "symptom_code": "C0235198",
    "url": "http://purl.obolibrary.org/obo/NCIT_C80081"
  },
  {
    "symptom_code": "C0237154",
    "url": "http://purl.obolibrary.org/obo/NCIT_C85868"
  },
  {
    "symptom_code": "C0086439",
    "url": "http://purl.obolibrary.org/obo/NCIT_C116576"
  },
  {
    "symptom_code": "C0231807",
    "url": "na"
  },
  {
    "symptom_code": "C0232292",
    "url": "na"
  },
  {
    "symptom_code": "C0010200",
    "url": "http://purl.obolibrary.org/obo/NCIT_C37935"
  },
  {
    "symptom_code": "C0015967",
    "url": "http://purl.obolibrary.org/obo/NCIT_C3038"
  },
  {
    "symptom_code": "C0029053",
    "url": "na"
  },
  {
    "symptom_code": "C0239134",
    "url": "http://purl.obolibrary.org/obo/NCIT_C78569"
  },
  {
    "symptom_code": "C0008033",
    "url": "http://purl.obolibrary.org/obo/NCIT_C78564"
  },
  {
    "symptom_code": "C0457096",
    "url": "na"
  },
  {
    "symptom_code": "C0238844",
    "url": "na"
  },
  {
    "symptom_code": "C0085593",
    "url": "na"
  },
  {
    "symptom_code": "C0035508",
    "url": "http://purl.obolibrary.org/obo/NCIT_C87116"
  },
  {
    "symptom_code": "C0457097",
    "url": "na"
  },
  {
    "symptom_code": "C0850149",
    "url": "na"
  },
  {
    "symptom_code": "C0043144",
    "url": "http://purl.obolibrary.org/obo/NCIT_C78718"
  },
  {
    "symptom_code": "C0019079",
    "url": "http://purl.obolibrary.org/obo/NCIT_C3094"
  },
  {
    "symptom_code": "C0476273",
    "url": "http://purl.obolibrary.org/obo/NCIT_C27165"
  },
  {
    "symptom_code": "C0231835",
    "url": "http://purl.obolibrary.org/obo/NCIT_C50767"
  },
  {
    "symptom_code": "C0231218",
    "url": "http://purl.obolibrary.org/obo/NCIT_C3832"
  },
  {
    "symptom_code": "C0028081",
    "url": "http://purl.obolibrary.org/obo/NCIT_C3279"
  },
  {
    "symptom_code": "C0240100",
    "url": "na"
  },
  {
    "symptom_code": "C0013404",
    "url": "http://purl.obolibrary.org/obo/NCIT_C2998"
  },
  {
    "symptom_code": "C0013362",
    "url": "http://purl.obolibrary.org/obo/NCIT_C79549"
  },
  {
    "symptom_code": "C0234518",
    "url": "na"
  },
  {
    "symptom_code": "C0427055",
    "url": "http://purl.obolibrary.org/obo/NCIT_C78290"
  },
  {
    "symptom_code": "C0018991",
    "url": "http://purl.obolibrary.org/obo/NCIT_C64329"
  },
  {
    "symptom_code": "C0036572",
    "url": "http://purl.obolibrary.org/obo/NCIT_C2962"
  },
  {
    "symptom_code": "C0028643",
    "url": "http://purl.obolibrary.org/obo/NCIT_C34857"
  },
  {
    "symptom_code": "C0436331",
    "url": "http://purl.obolibrary.org/obo/NCIT_C94433"
  },
  {
    "symptom_code": "C0520886",
    "url": "http://purl.obolibrary.org/obo/NCIT_C50540"
  },
  {
    "symptom_code": "C0520887",
    "url": "http://purl.obolibrary.org/obo/NCIT_C41330"
  },
  {
    "symptom_code": "C0520888",
    "url": "http://purl.obolibrary.org/obo/NCIT_C71085"
  },
  {
    "symptom_code": "C1305739",
    "url": "na"
  },
  {
    "symptom_code": "C0235710",
    "url": "na"
  },
  {
    "symptom_code": "C0428977",
    "url": "http://purl.obolibrary.org/obo/NCIT_C37920"
  },
  {
    "symptom_code": "C0030193",
    "url": "http://purl.obolibrary.org/obo/NCIT_C3303"
  },
  {
    "symptom_code": "C0337672",
    "url": "na"
  },
  {
    "symptom_code": "C0041834",
    "url": "na"
  },
  {
    "symptom_code": "C0019214",
    "url": "http://purl.obolibrary.org/obo/NCIT_C97345"
  },
  {
    "symptom_code": "C0033774",
    "url": "http://purl.obolibrary.org/obo/NCIT_C3344"
  },
  {
    "symptom_code": "C0011991",
    "url": "http://purl.obolibrary.org/obo/NCIT_C2987"
  },
  {
    "symptom_code": "C0549483",
    "url": "na"
  },
  {
    "symptom_code": "C0038999",
    "url": "http://purl.obolibrary.org/obo/NCIT_C3399"
  },
  {
    "symptom_code": "C0277797",
    "url": "na"
  },
  {
    "symptom_code": "C0013428",
    "url": "http://purl.obolibrary.org/obo/NCIT_C2999"
  },
  {
    "symptom_code": "C0018965",
    "url": "http://purl.obolibrary.org/obo/NCIT_C3090"
  },
  {
    "symptom_code": "C0235634",
    "url": "na"
  },
  {
    "symptom_code": "C0023380",
    "url": "http://purl.obolibrary.org/obo/NCIT_C78416"
  },
  {
    "symptom_code": "C0020625",
    "url": "http://purl.obolibrary.org/obo/NCIT_C37976"
  },
  {
    "symptom_code": "C0578150",
    "url": "na"
  },
  {
    "symptom_code": "C0241705",
    "url": "na"
  },
  {
    "symptom_code": "C0239110",
    "url": "na"
  },
  {
    "symptom_code": "C0744492",
    "url": "na"
  },
  {
    "symptom_code": "C0746619",
    "url": "na"
  },
  {
    "symptom_code": "C0013491",
    "url": "http://purl.obolibrary.org/obo/NCIT_C26758"
  },
  {
    "symptom_code": "C1269955",
    "url": "http://purl.obolibrary.org/obo/NCIT_C20625"
  },
  {
    "symptom_code": "C0019080",
    "url": "http://purl.obolibrary.org/obo/NCIT_C26791"
  },
  {
    "symptom_code": "C0030232",
    "url": "http://purl.obolibrary.org/obo/NCIT_C50685"
  },
  {
    "symptom_code": "C0015672",
    "url": "http://purl.obolibrary.org/obo/NCIT_C3036"
  },
  {
    "symptom_code": "C0744740",
    "url": "na"
  },
  {
    "symptom_code": "C0004604",
    "url": "http://purl.obolibrary.org/obo/NCIT_C41830"
  },
  {
    "symptom_code": "C0149746",
    "url": "na"
  },
  {
    "symptom_code": "C0003862",
    "url": "http://purl.obolibrary.org/obo/NCIT_C50464"
  },
  {
    "symptom_code": "C1096646",
    "url": "na"
  },
  {
    "symptom_code": "C0241235",
    "url": "na"
  },
  {
    "symptom_code": "C0700292",
    "url": "http://purl.obolibrary.org/obo/NCIT_C93047"
  },
  {
    "symptom_code": "C0020440",
    "url": "http://purl.obolibrary.org/obo/NCIT_C122721"
  },
  {
    "symptom_code": "C0376405",
    "url": "http://purl.obolibrary.org/obo/NCIT_C91752"
  },
  {
    "symptom_code": "C0041657",
    "url": "na"
  },
  {
    "symptom_code": "C0425251",
    "url": "na"
  },
  {
    "symptom_code": "C0232498",
    "url": "na"
  },
  {
    "symptom_code": "C1273573",
    "url": "na"
  },
  {
    "symptom_code": "C0020461",
    "url": "http://purl.obolibrary.org/obo/NCIT_C37968"
  },
  {
    "symptom_code": "C0085606",
    "url": "http://purl.obolibrary.org/obo/NCIT_C50792"
  },
  {
    "symptom_code": "C0003962",
    "url": "http://purl.obolibrary.org/obo/NCIT_C2885"
  },
  {
    "symptom_code": "C0020649",
    "url": "http://purl.obolibrary.org/obo/NCIT_C3128"
  },
  {
    "symptom_code": "C0014394",
    "url": "http://purl.obolibrary.org/obo/NCIT_C34588"
  },
  {
    "symptom_code": "C0232766",
    "url": "http://purl.obolibrary.org/obo/NCIT_C86048"
  },
  {
    "symptom_code": "C0231530",
    "url": "http://purl.obolibrary.org/obo/NCIT_C50785"
  },
  {
    "symptom_code": "C0234450",
    "url": "na"
  },
  {
    "symptom_code": "C0018681",
    "url": "http://purl.obolibrary.org/obo/NCIT_C34661"
  },
  {
    "symptom_code": "C0220870",
    "url": "http://purl.obolibrary.org/obo/NCIT_C118255"
  },
  {
    "symptom_code": "C0149696",
    "url": "na"
  },
  {
    "symptom_code": "C0239832",
    "url": "na"
  },
  {
    "symptom_code": "C0858924",
    "url": "na"
  },
  {
    "symptom_code": "C0013144",
    "url": "http://purl.obolibrary.org/obo/NCIT_C95746"
  },
  {
    "symptom_code": "C0427008",
    "url": "na"
  },
  {
    "symptom_code": "C0242453",
    "url": "na"
  },
  {
    "symptom_code": "C0043094",
    "url": "http://purl.obolibrary.org/obo/NCIT_C62754"
  },
  {
    "symptom_code": "C0577559",
    "url": "http://purl.obolibrary.org/obo/NCIT_C34808"
  },
  {
    "symptom_code": "C0557075",
    "url": "na"
  },
  {
    "symptom_code": "C0027769",
    "url": "http://purl.obolibrary.org/obo/NCIT_C74532"
  },
  {
    "symptom_code": "C0016579",
    "url": "na"
  },
  {
    "symptom_code": "C0600142",
    "url": "http://purl.obolibrary.org/obo/NCIT_C3109"
  },
  {
    "symptom_code": "C0221198",
    "url": "http://purl.obolibrary.org/obo/NCIT_C3824"
  },
  {
    "symptom_code": "C0332601",
    "url": "http://purl.obolibrary.org/obo/NCIT_C37938"
  },
  {
    "symptom_code": "C0743482",
    "url": "na"
  },
  {
    "symptom_code": "C0043096",
    "url": "na"
  },
  {
    "symptom_code": "C0019825",
    "url": "http://purl.obolibrary.org/obo/NCIT_C47813"
  },
  {
    "symptom_code": "C0205400",
    "url": "na"
  },
  {
    "symptom_code": "C0233308",
    "url": "http://purl.obolibrary.org/obo/NCIT_C92888"
  },
  {
    "symptom_code": "C0032739",
    "url": "na"
  },
  {
    "symptom_code": "C0026827",
    "url": "http://purl.obolibrary.org/obo/NCIT_C87070"
  },
  {
    "symptom_code": "C0332575",
    "url": "http://purl.obolibrary.org/obo/NCIT_C26901"
  },
  {
    "symptom_code": "C0020580",
    "url": "http://purl.obolibrary.org/obo/NCIT_C50445"
  },
  {
    "symptom_code": "C0034880",
    "url": "http://purl.obolibrary.org/obo/NCIT_C116366"
  },
  {
    "symptom_code": "C1384489",
    "url": "na"
  },
  {
    "symptom_code": "C0234233",
    "url": "http://purl.obolibrary.org/obo/NCIT_C75540"
  },
  {
    "symptom_code": "C0085624",
    "url": "http://purl.obolibrary.org/obo/NCIT_C50476"
  },
  {
    "symptom_code": "C0239233",
    "url": "na"
  },
  {
    "symptom_code": "C1444773",
    "url": "na"
  },
  {
    "symptom_code": "C0234215",
    "url": "na"
  },
  {
    "symptom_code": "C0009806",
    "url": "http://purl.obolibrary.org/obo/NCIT_C37930"
  },
  {
    "symptom_code": "C0000737",
    "url": "http://purl.obolibrary.org/obo/NCIT_C26682"
  },
  {
    "symptom_code": "C0018834",
    "url": "http://purl.obolibrary.org/obo/NCIT_C34670"
  },
  {
    "symptom_code": "C0006157",
    "url": "http://purl.obolibrary.org/obo/NCIT_C34438"
  },
  {
    "symptom_code": "C0010520",
    "url": "http://purl.obolibrary.org/obo/NCIT_C26737"
  },
  {
    "symptom_code": "C0023222",
    "url": "http://purl.obolibrary.org/obo/NCIT_C34764"
  },
  {
    "symptom_code": "C0018800",
    "url": "http://purl.obolibrary.org/obo/NCIT_C61453"
  },
  {
    "symptom_code": "C0009024",
    "url": "http://purl.obolibrary.org/obo/NCIT_C34484"
  },
  {
    "symptom_code": "C0857256",
    "url": "na"
  },
  {
    "symptom_code": "C0003123",
    "url": "http://purl.obolibrary.org/obo/NCIT_C2875"
  },
  {
    "symptom_code": "C0003126",
    "url": "http://purl.obolibrary.org/obo/NCIT_C116369"
  },
  {
    "symptom_code": "C1513183",
    "url": "http://purl.obolibrary.org/obo/NCIT_C40557"
  },
  {
    "symptom_code": "C0271202",
    "url": "http://purl.obolibrary.org/obo/NCIT_C118733"
  },
  {
    "symptom_code": "C0744727",
    "url": "na"
  },
  {
    "symptom_code": "C0151315",
    "url": "http://purl.obolibrary.org/obo/NCIT_C50664"
  },
  {
    "symptom_code": "C0008767",
    "url": "na"
  },
  {
    "symptom_code": "C0347938",
    "url": "na"
  },
  {
    "symptom_code": "C0236018",
    "url": "na"
  },
  {
    "symptom_code": "C0027066",
    "url": "http://purl.obolibrary.org/obo/NCIT_C34832"
  },
  {
    "symptom_code": "C0232517",
    "url": "na"
  },
  {
    "symptom_code": "C0558195",
    "url": "na"
  },
  {
    "symptom_code": "C0238705",
    "url": "na"
  },
  {
    "symptom_code": "C0028961",
    "url": "http://purl.obolibrary.org/obo/NCIT_C114698"
  },
  {
    "symptom_code": "C0007398",
    "url": "na"
  },
  {
    "symptom_code": "C0847488",
    "url": "na"
  },
  {
    "symptom_code": "C0030554",
    "url": "http://purl.obolibrary.org/obo/NCIT_C28177"
  },
  {
    "symptom_code": "C0232995",
    "url": "na"
  },
  {
    "symptom_code": "C0034079",
    "url": "http://purl.obolibrary.org/obo/NCIT_C122407"
  },
  {
    "symptom_code": "C0000731",
    "url": "http://purl.obolibrary.org/obo/NCIT_C78161"
  },
  {
    "symptom_code": "C0234238",
    "url": "http://purl.obolibrary.org/obo/NCIT_C86024"
  },
  {
    "symptom_code": "C0558143",
    "url": "http://purl.obolibrary.org/obo/NCIT_C83472"
  },
  {
    "symptom_code": "C0581912",
    "url": "na"
  },
  {
    "symptom_code": "C0234253",
    "url": "na"
  },
  {
    "symptom_code": "C0232201",
    "url": "http://purl.obolibrary.org/obo/NCIT_C100076"
  },
  {
    "symptom_code": "C0424092",
    "url": "na"
  },
  {
    "symptom_code": "C0424295",
    "url": "http://purl.obolibrary.org/obo/NCIT_C34706"
  },
  {
    "symptom_code": "C0558261",
    "url": "na"
  },
  {
    "symptom_code": "C0085635",
    "url": "http://purl.obolibrary.org/obo/NCIT_C50568"
  },
  {
    "symptom_code": "C0392701",
    "url": "na"
  },
  {
    "symptom_code": "C0578859",
    "url": "na"
  },
  {
    "symptom_code": "C0917799",
    "url": "http://purl.obolibrary.org/obo/NCIT_C78346"
  },
  {
    "symptom_code": "C0020458",
    "url": "http://purl.obolibrary.org/obo/NCIT_C78345"
  },
  {
    "symptom_code": "C0026961",
    "url": "na"
  },
  {
    "symptom_code": "C0234133",
    "url": "na"
  },
  {
    "symptom_code": "C0240233",
    "url": "na"
  },
  {
    "symptom_code": "C0392674",
    "url": "na"
  },
  {
    "symptom_code": "C0037384",
    "url": "http://purl.obolibrary.org/obo/NCIT_C116315"
  },
  {
    "symptom_code": "C0429091",
    "url": "na"
  },
  {
    "symptom_code": "C0497406",
    "url": "http://purl.obolibrary.org/obo/NCIT_C94250"
  },
  {
    "symptom_code": "C0232257",
    "url": "na"
  },
  {
    "symptom_code": "C0231221",
    "url": "http://purl.obolibrary.org/obo/NCIT_C3833"
  },
  {
    "symptom_code": "C0038002",
    "url": "http://purl.obolibrary.org/obo/NCIT_C3384"
  },
  {
    "symptom_code": "C0151706",
    "url": "http://purl.obolibrary.org/obo/NCIT_C95557"
  },
  {
    "symptom_code": "C0332573",
    "url": "http://purl.obolibrary.org/obo/NCIT_C43278"
  },
  {
    "symptom_code": "C0085636",
    "url": "http://purl.obolibrary.org/obo/NCIT_C28210"
  },
  {
    "symptom_code": "C0221150",
    "url": "http://purl.obolibrary.org/obo/NCIT_C129502"
  },
  {
    "symptom_code": "C0006625",
    "url": "http://purl.obolibrary.org/obo/NCIT_C2913"
  },
  {
    "symptom_code": "C0020598",
    "url": "http://purl.obolibrary.org/obo/NCIT_C37973"
  },
  {
    "symptom_code": "C0020672",
    "url": "http://purl.obolibrary.org/obo/NCIT_C50523"
  },
  {
    "symptom_code": "C0741302",
    "url": "http://purl.obolibrary.org/obo/NCIT_C9478"
  },
  {
    "symptom_code": "C0427108",
    "url": "na"
  },
  {
    "symptom_code": "C0242429",
    "url": "http://purl.obolibrary.org/obo/NCIT_C50747"
  },
  {
    "symptom_code": "C1260880",
    "url": "http://purl.obolibrary.org/obo/NCIT_C54282"
  },
  {
    "symptom_code": "C0239133",
    "url": "na"
  },
  {
    "symptom_code": "C0038450",
    "url": "http://purl.obolibrary.org/obo/NCIT_C78632"
  },
  {
    "symptom_code": "C0030552",
    "url": "http://purl.obolibrary.org/obo/NCIT_C50688"
  },
  {
    "symptom_code": "C0221470",
    "url": "na"
  },
  {
    "symptom_code": "C0751495",
    "url": "http://purl.obolibrary.org/obo/NCIT_C50689"
  },
  {
    "symptom_code": "C0423571",
    "url": "na"
  },
  {
    "symptom_code": "C0085628",
    "url": "http://purl.obolibrary.org/obo/NCIT_C28209"
  },
  {
    "symptom_code": "C0231890",
    "url": "na"
  },
  {
    "symptom_code": "C0271276",
    "url": "na"
  },
  {
    "symptom_code": "C0677500",
    "url": "na"
  },
  {
    "symptom_code": "C0522224",
    "url": "http://purl.obolibrary.org/obo/NCIT_C3310"
  },
  {
    "symptom_code": "C0019572",
    "url": "http://purl.obolibrary.org/obo/NCIT_C61444"
  },
  {
    "symptom_code": "C0558361",
    "url": "na"
  },
  {
    "symptom_code": "C0233565",
    "url": "http://purl.obolibrary.org/obo/NCIT_C116707"
  },
  {
    "symptom_code": "C0848168",
    "url": "na"
  },
  {
    "symptom_code": "C0150045",
    "url": "na"
  },
  {
    "symptom_code": "C0344232",
    "url": "http://purl.obolibrary.org/obo/NCIT_C27123"
  },
  {
    "symptom_code": "C0848277",
    "url": "na"
  },
  {
    "symptom_code": "C0423982",
    "url": "na"
  },
  {
    "symptom_code": "C0233844",
    "url": "na"
  },
  {
    "symptom_code": "C0278014",
    "url": "na"
  },
  {
    "symptom_code": "C0018932",
    "url": "http://purl.obolibrary.org/obo/NCIT_C98936"
  },
  {
    "symptom_code": "C0231872",
    "url": "na"
  },
  {
    "symptom_code": "C0233647",
    "url": "na"
  },
  {
    "symptom_code": "C0231187",
    "url": "http://purl.obolibrary.org/obo/NCIT_C150047"
  },
  {
    "symptom_code": "C0241252",
    "url": "na"
  },
  {
    "symptom_code": "C0424790",
    "url": "na"
  },
  {
    "symptom_code": "C0221166",
    "url": "http://purl.obolibrary.org/obo/NCIT_C86576"
  },
  {
    "symptom_code": "C0554980",
    "url": "na"
  },
  {
    "symptom_code": "C0877040",
    "url": "na"
  },
  {
    "symptom_code": "C0037763",
    "url": "http://purl.obolibrary.org/obo/NCIT_C50656"
  },
  {
    "symptom_code": "C0020578",
    "url": "http://purl.obolibrary.org/obo/NCIT_C50590"
  },
  {
    "symptom_code": "C0278141",
    "url": "na"
  },
  {
    "symptom_code": "C0016927",
    "url": "http://purl.obolibrary.org/obo/NCIT_C34630"
  },
  {
    "symptom_code": "C0872410",
    "url": "na"
  },
  {
    "symptom_code": "C0277899",
    "url": "na"
  },
  {
    "symptom_code": "C0392699",
    "url": "http://purl.obolibrary.org/obo/NCIT_C28246"
  },
  {
    "symptom_code": "C0521516",
    "url": "na"
  },
  {
    "symptom_code": "C0848621",
    "url": "na"
  },
  {
    "symptom_code": "C0151878",
    "url": "http://purl.obolibrary.org/obo/NCIT_C71034"
  },
  {
    "symptom_code": "C0004134",
    "url": "http://purl.obolibrary.org/obo/NCIT_C26702"
  },
  {
    "symptom_code": "C0018862",
    "url": "http://purl.obolibrary.org/obo/NCIT_C34671"
  },
  {
    "symptom_code": "C0019209",
    "url": "http://purl.obolibrary.org/obo/NCIT_C3100"
  },
  {
    "symptom_code": "C0036396",
    "url": "na"
  },
  {
    "symptom_code": "C0577979",
    "url": "na"
  },
  {
    "symptom_code": "C0024103",
    "url": "http://purl.obolibrary.org/obo/NCIT_C3197"
  },
  {
    "symptom_code": "C0277845",
    "url": "na"
  },
  {
    "symptom_code": "C0239301",
    "url": "na"
  },
  {
    "symptom_code": "C0751229",
    "url": "na"
  },
  {
    "symptom_code": "C0041667",
    "url": "na"
  },
  {
    "symptom_code": "C0541911",
    "url": "na"
  },
  {
    "symptom_code": "C0857199",
    "url": "na"
  },
  {
    "symptom_code": "C0232488",
    "url": "http://purl.obolibrary.org/obo/NCIT_C34494"
  },
  {
    "symptom_code": "C0020621",
    "url": "http://purl.obolibrary.org/obo/NCIT_C37974"
  },
  {
    "symptom_code": "C0020175",
    "url": "na"
  },
  {
    "symptom_code": "C0240813",
    "url": "na"
  },
  {
    "symptom_code": "C0016512",
    "url": "http://purl.obolibrary.org/obo/NCIT_C34618"
  },
  {
    "symptom_code": "C0152032",
    "url": "http://purl.obolibrary.org/obo/NCIT_C123246"
  },
  {
    "symptom_code": "C0281825",
    "url": "na"
  },
  {
    "symptom_code": "C0016382",
    "url": "http://purl.obolibrary.org/obo/NCIT_C26775"
  },
  {
    "symptom_code": "C0085632",
    "url": "http://purl.obolibrary.org/obo/NCIT_C117197"
  },
  {
    "symptom_code": "C1313921",
    "url": "na"
  },
  {
    "symptom_code": "C0239981",
    "url": "http://purl.obolibrary.org/obo/NCIT_C37972"
  },
  {
    "symptom_code": "C0241157",
    "url": "http://purl.obolibrary.org/obo/NCIT_C78582"
  },
  {
    "symptom_code": "C0232854",
    "url": "na"
  },
  {
    "symptom_code": "C0277794",
    "url": "http://purl.obolibrary.org/obo/NCIT_C50556"
  },
  {
    "symptom_code": "C0442739",
    "url": "na"
  },
  {
    "symptom_code": "C1135120",
    "url": "http://purl.obolibrary.org/obo/NCIT_C9203"
  },
  {
    "symptom_code": "C0232258",
    "url": "na"
  },
  {
    "symptom_code": "C0694547",
    "url": "na"
  },
  {
    "symptom_code": "C0848340",
    "url": "na"
  },
  {
    "symptom_code": "C0234866",
    "url": "na"
  },
  {
    "symptom_code": "C0425488",
    "url": "na"
  },
  {
    "symptom_code": "C0237304",
    "url": "na"
  },
  {
    "symptom_code": "C0264273",
    "url": "na"
  },
  {
    "symptom_code": "C0871754",
    "url": "na"
  },
  {
    "symptom_code": "C1511606",
    "url": "http://purl.obolibrary.org/obo/NCIT_C41421"
  },
  {
    "symptom_code": "C0221151",
    "url": "http://purl.obolibrary.org/obo/NCIT_C113480"
  },
  {
    "symptom_code": "C0581911",
    "url": "na"
  },
  {
    "symptom_code": "C0231690",
    "url": "na"
  },
  {
    "symptom_code": "C0234979",
    "url": "na"
  },
  {
    "symptom_code": "C1321756",
    "url": "http://purl.obolibrary.org/obo/NCIT_C50451"
  },
  {
    "symptom_code": "C0748706",
    "url": "na"
  },
  {
    "symptom_code": "C0085702",
    "url": "na"
  },
  {
    "symptom_code": "C0032781",
    "url": "http://purl.obolibrary.org/obo/NCIT_C78566"
  },
  {
    "symptom_code": "C0542044",
    "url": "na"
  },
  {
    "symptom_code": "C0311395",
    "url": "http://purl.obolibrary.org/obo/NCIT_C50495"
  },
  {
    "symptom_code": "C0392162",
    "url": "na"
  },
  {
    "symptom_code": "C0264576",
    "url": "http://purl.obolibrary.org/obo/NCIT_C50645"
  },
  {
    "symptom_code": "C0027498",
    "url": "http://purl.obolibrary.org/obo/NCIT_C3259"
  },
  {
    "symptom_code": "C0541798",
    "url": "na"
  },
  {
    "symptom_code": "C0232726",
    "url": "http://purl.obolibrary.org/obo/NCIT_C60661"
  },
  {
    "symptom_code": "C1167754",
    "url": "na"
  },
  {
    "symptom_code": "C0232894",
    "url": "na"
  },
  {
    "symptom_code": "C0234544",
    "url": "na"
  },
  {
    "symptom_code": "C0740880",
    "url": "na"
  },
  {
    "symptom_code": "C0231528",
    "url": "http://purl.obolibrary.org/obo/NCIT_C27009"
  },
  {
    "symptom_code": "C1384606",
    "url": "http://purl.obolibrary.org/obo/NCIT_C2997"
  },
  {
    "symptom_code": "C0149758",
    "url": "na"
  },
  {
    "symptom_code": "C0857516",
    "url": "na"
  },
  {
    "symptom_code": "C0233467",
    "url": "na"
  },
  {
    "symptom_code": "C0576456",
    "url": "http://purl.obolibrary.org/obo/NCIT_C87111"
  },
  {
    "symptom_code": "C0859032",
    "url": "na"
  },
  {
    "symptom_code": "C0221232",
    "url": "http://purl.obolibrary.org/obo/NCIT_C50811"
  },
  {
    "symptom_code": "C0040264",
    "url": "http://purl.obolibrary.org/obo/NCIT_C50772"
  },
  {
    "symptom_code": "C0020303",
    "url": "na"
  },
  {
    "symptom_code": "C0429562",
    "url": "na"
  },
  {
    "symptom_code": "C0235129",
    "url": "na"
  },
  {
    "symptom_code": "C0242143",
    "url": "na"
  },
  {
    "symptom_code": "C0424530",
    "url": "na"
  },
  {
    "symptom_code": "C0270844",
    "url": "http://purl.obolibrary.org/obo/NCIT_C50776"
  },
  {
    "symptom_code": "C0742985",
    "url": "na"
  },
  {
    "symptom_code": "C0338656",
    "url": "http://purl.obolibrary.org/obo/NCIT_C116921"
  },
  {
    "symptom_code": "C0013132",
    "url": "http://purl.obolibrary.org/obo/NCIT_C121582"
  },
  {
    "symptom_code": "C0235231",
    "url": "na"
  },
  {
    "symptom_code": "C0234379",
    "url": "na"
  },
  {
    "symptom_code": "C0541992",
    "url": "na"
  },
  {
    "symptom_code": "C0559546",
    "url": "http://purl.obolibrary.org/obo/NCIT_C41332"
  },
  {
    "symptom_code": "C1291077",
    "url": "http://purl.obolibrary.org/obo/NCIT_C78213"
  },
  {
    "symptom_code": "C0231230",
    "url": "na"
  },
  {
    "symptom_code": "C0233071",
    "url": "na"
  },
  {
    "symptom_code": "C0156543",
    "url": "na"
  },
  {
    "symptom_code": "C0232943",
    "url": "na"
  },
  {
    "symptom_code": "C0232997",
    "url": "na"
  },
  {
    "symptom_code": "C0860096",
    "url": "na"
  },
  {
    "symptom_code": "C0702118",
    "url": "na"
  },
  {
    "symptom_code": "C1405524",
    "url": "na"
  },
  {
    "symptom_code": "C0007859",
    "url": "http://purl.obolibrary.org/obo/NCIT_C50663"
  },
  {
    "symptom_code": "C0857087",
    "url": "na"
  },
  {
    "symptom_code": "C0278146",
    "url": "http://purl.obolibrary.org/obo/NCIT_C101180"
  },
  {
    "symptom_code": "C0235250",
    "url": "na"
  },
  {
    "symptom_code": "C0443260",
    "url": "na"
  },
  {
    "symptom_code": "C0232605",
    "url": "na"
  },
  {
    "symptom_code": "C0542073",
    "url": "na"
  },
  {
    "symptom_code": "C0751466",
    "url": "http://purl.obolibrary.org/obo/NCIT_C122579"
  },
  {
    "symptom_code": "C0522336",
    "url": "na"
  },
  {
    "symptom_code": "C0002416",
    "url": "na"
  },
  {
    "symptom_code": "C0232118",
    "url": "na"
  },
  {
    "symptom_code": "C1291692",
    "url": "na"
  },
  {
    "symptom_code": "C0006318",
    "url": "na"
  },
  {
    "symptom_code": "C0476287",
    "url": "na"
  },
  {
    "symptom_code": "C0240962",
    "url": "http://purl.obolibrary.org/obo/NCIT_C122411"
  },
  {
    "symptom_code": "C0232602",
    "url": "http://purl.obolibrary.org/obo/NCIT_C94475"
  },
  {
    "symptom_code": "C0948786",
    "url": "na"
  },
  {
    "symptom_code": "C0233492",
    "url": "na"
  },
  {
    "symptom_code": "C0558089",
    "url": "na"
  },
  {
    "symptom_code": "C0558141",
    "url": "http://purl.obolibrary.org/obo/NCIT_C46117"
  },
  {
    "symptom_code": "C0474395",
    "url": "na"
  },
  {
    "symptom_code": "C0241158",
    "url": "http://purl.obolibrary.org/obo/NCIT_C50737"
  },
  {
    "symptom_code": "C0520966",
    "url": "na"
  },
  {
    "symptom_code": "C0008301",
    "url": "http://purl.obolibrary.org/obo/NCIT_C50494"
  },
  {
    "symptom_code": "C0232695",
    "url": "na"
  },
  {
    "symptom_code": "C0262581",
    "url": "na"
  },
  {
    "symptom_code": "C0024031",
    "url": "http://purl.obolibrary.org/obo/NCIT_C34788"
  },
  {
    "symptom_code": "C0277823",
    "url": "na"
  },
  {
    "symptom_code": "C0205254",
    "url": "http://purl.obolibrary.org/obo/NCIT_C118254"
  },
  {
    "symptom_code": "C0424749",
    "url": "na"
  },
  {
    "symptom_code": "C1517205",
    "url": "http://purl.obolibrary.org/obo/NCIT_C37953"
  },
  {
    "symptom_code": "C0232267",
    "url": "na"
  },
  {
    "symptom_code": "C0424337",
    "url": "na"
  },
  {
    "symptom_code": "C0030318",
    "url": "http://purl.obolibrary.org/obo/NCIT_C94438"
  },
  {
    "symptom_code": "C0425560",
    "url": "http://purl.obolibrary.org/obo/NCIT_C27231"
  },
  {
    "symptom_code": "C0037580",
    "url": "na"
  },
  {
    "symptom_code": "C0427629",
    "url": "na"
  },
  {
    "symptom_code": "C0233070",
    "url": "na"
  },
  {
    "symptom_code": "C0277873",
    "url": "http://purl.obolibrary.org/obo/NCIT_C87099"
  },
  {
    "symptom_code": "C0037383",
    "url": "http://purl.obolibrary.org/obo/NCIT_C50746"
  },
  {
    "symptom_code": "C0235396",
    "url": "http://purl.obolibrary.org/obo/NCIT_C87085"
  },
  {
    "symptom_code": "C0277977",
    "url": "na"
  },
  {
    "symptom_code": "C0016204",
    "url": "http://purl.obolibrary.org/obo/NCIT_C37954"
  },
  {
    "symptom_code": "C0425449",
    "url": "http://purl.obolibrary.org/obo/NCIT_C121624"
  },
  {
    "symptom_code": "C0474505",
    "url": "na"
  },
  {
    "symptom_code": "C0240805",
    "url": "na"
  },
  {
    "symptom_code": "C0020639",
    "url": "na"
  },
  {
    "symptom_code": "C0556346",
    "url": "na"
  },
  {
    "symptom_code": "C0000727",
    "url": "na"
  },
  {
    "symptom_code": "C0740844",
    "url": "na"
  },
  {
    "symptom_code": "C0425491",
    "url": "na"
  },
  {
    "symptom_code": "C0456091",
    "url": "http://purl.obolibrary.org/obo/NCIT_C114873"
  },
  {
    "symptom_code": "C0231441",
    "url": "na"
  },
  {
    "symptom_code": "C0455204",
    "url": "http://purl.obolibrary.org/obo/NCIT_C118205"
  }
]